Analysis Document
…
Code

scm_brazil %>% tidysynth::grab_significance()

# A tibble: 50 × 8
   unit_name     type  pre_mspe post_mspe mspe_ratio  rank fishers_exact_pvalue
   <chr>         <chr>    <dbl>     <dbl>      <dbl> <int>                <dbl>
 1 China         Donor 0.000205   0.0161        78.4     1                 0.02
 2 Bhutan        Donor 0.00181    0.125         68.9     2                 0.04
 3 Cuba          Donor 0.000313   0.0127        40.6     3                 0.06
 4 Burundi       Donor 0.00234    0.0807        34.5     4                 0.08
 5 Burma/Myanmar Donor 0.000417   0.0123        29.5     5                 0.1 
 6 Angola        Donor 0.000111   0.00284       25.5     6                 0.12
 7 Egypt         Donor 0.00153    0.0384        25.2     7                 0.14
 8 Botswana      Donor 0.000405   0.00664       16.4     8                 0.16
 9 Bangladesh    Donor 0.00347    0.0535        15.4     9                 0.18
10 Colombia      Donor 0.000984   0.0137        13.9    10                 0.2 
# ℹ 40 more rows
# ℹ 1 more variable: z_score <dbl>
…
